…
> averages_total <- level_means_df %>%
+   group_by(Level) %>%
+   summarise(across(everything(),median))

> averages_total
# A tibble: 31 × 3
   Level G_mean M_mean
   <int>  <dbl>  <dbl>
 1     1  0.118  0.119
 2     2  0.118  0.120
 3     3  0.128  0.129
 4     4  0.128  0.129
 5     5  0.128  0.129
 6     6  0.127  0.129
 7     7  0.122  0.125
 8     8  0.122  0.125
 9     9  0.120  0.125
10    10  0.119  0.125
# ℹ 21 more rows
# ℹ Use `print(n = ...)` to see more rows
…
